{
    "key": "group_5e777a30f40b4",
    "title": "Travel Post - SEA TO SEA AND GOLAN",
    "fields": [
        {
            "key": "field_5e777a630f6bf",
            "label": "שביל ים לים והגולן",
            "name": "",
            "aria-label": "",
            "type": "accordion",
            "instructions": "",
            "required": 0,
            "conditional_logic": 0,
            "wrapper": {
                "width": "",
                "class": "",
                "id": ""
            },
            "open": 1,
            "multi_expand": 0,
            "endpoint": 0
        },
        {
            "key": "field_5e777acf0f6c0",
            "label": "שם המקטע",
            "name": "name_mikta_golan",
            "aria-label": "",
            "type": "text",
            "instructions": "כתוב את השם של המקטע - עם מספרו .",
            "required": 0,
            "conditional_logic": 0,
            "wrapper": {
                "width": "",
                "class": "",
                "id": ""
            },
            "default_value": "",
            "placeholder": "",
            "prepend": "",
            "append": "",
            "maxlength": ""
        },
        {
            "key": "field_5e777aff0f6c1",
            "label": "אורך המרחק",
            "name": "length",
            "aria-label": "",
            "type": "number",
            "instructions": "מה אורך המקטע ?",
            "required": 0,
            "conditional_logic": 0,
            "wrapper": {
                "width": "",
                "class": "",
                "id": ""
            },
            "default_value": "",
            "placeholder": "",
            "prepend": "",
            "append": "",
            "min": "",
            "max": "",
            "step": ""
        },
        {
            "key": "field_5e96a3e12d2aa",
            "label": "כותרת נקודות מילוי מים",
            "name": "headlinewater",
            "aria-label": "",
            "type": "text",
            "instructions": "",
            "required": 0,
            "conditional_logic": 0,
            "wrapper": {
                "width": "",
                "class": "",
                "id": ""
            },
            "default_value": "נקודות למילוי מים",
            "placeholder": "",
            "prepend": "",
            "append": "",
            "maxlength": ""
        },
        {
            "key": "field_5e777b350f6c2",
            "label": "נקודות מילוי מים",
            "name": "water_drops_golan",
            "aria-label": "",
            "type": "wysiwyg",
            "instructions": "נקודת למילוי מים .",
            "required": 0,
            "conditional_logic": 0,
            "wrapper": {
                "width": "",
                "class": "",
                "id": ""
            },
            "tabs": "all",
            "toolbar": "full",
            "media_upload": 1,
            "default_value": "",
            "delay": 0
        },
        {
            "key": "field_5e96a3fe2d2ab",
            "label": "נקודות למלאי מחדש של מזון כותרת",
            "name": "foodheadline",
            "aria-label": "",
            "type": "text",
            "instructions": "",
            "required": 0,
            "conditional_logic": 0,
            "wrapper": {
                "width": "",
                "class": "",
                "id": ""
            },
            "default_value": "נקודות לצידה לדרך",
            "placeholder": "",
            "prepend": "",
            "append": "",
            "maxlength": ""
        },
        {
            "key": "field_5e777b570f6c3",
            "label": "נקודות למלאי מחדש של מזון",
            "name": "food",
            "aria-label": "",
            "type": "wysiwyg",
            "instructions": "",
            "required": 0,
            "conditional_logic": 0,
            "wrapper": {
                "width": "",
                "class": "",
                "id": ""
            },
            "default_value": "",
            "tabs": "all",
            "toolbar": "full",
            "media_upload": 1,
            "delay": 0
        },
        {
            "key": "field_5e96a47e2d2ac",
            "label": "לינה- מלאכי שביל או מקומות לינה כותרת",
            "name": "SLEEPHEADLINE",
            "aria-label": "",
            "type": "text",
            "instructions": "",
            "required": 0,
            "conditional_logic": 0,
            "wrapper": {
                "width": "",
                "class": "",
                "id": ""
            },
            "default_value": "איפה ישנים",
            "placeholder": "",
            "prepend": "",
            "append": "",
            "maxlength": ""
        },
        {
            "key": "field_5e777b700f6c4",
            "label": "לינה- מלאכי שביל או מקומות לינה",
            "name": "SLEEP",
            "aria-label": "",
            "type": "wysiwyg",
            "instructions": "",
            "required": 0,
            "conditional_logic": 0,
            "wrapper": {
                "width": "",
                "class": "",
                "id": ""
            },
            "default_value": "",
            "tabs": "all",
            "toolbar": "full",
            "media_upload": 1,
            "delay": 0
        },
        {
            "key": "field_5e777b950f6c5",
            "label": "תוכן על המסלול",
            "name": "tochenmaslul",
            "aria-label": "",
            "type": "wysiwyg",
            "instructions": "כתוב על המסלול",
            "required": 0,
            "conditional_logic": 0,
            "wrapper": {
                "width": "",
                "class": "",
                "id": ""
            },
            "default_value": "",
            "tabs": "all",
            "toolbar": "full",
            "media_upload": 1,
            "delay": 0
        },
        {
            "key": "field_5e8d42d172faa",
            "label": "garmin link",
            "name": "garmin_link",
            "aria-label": "",
            "type": "text",
            "instructions": "שים כאן לינק לגרמין .",
            "required": 0,
            "conditional_logic": 0,
            "wrapper": {
                "width": "",
                "class": "",
                "id": ""
            },
            "default_value": "",
            "placeholder": "",
            "prepend": "",
            "append": "",
            "maxlength": ""
        }
    ],
    "location": [
        [
            {
                "param": "post_category",
                "operator": "==",
                "value": "category:golan_trail"
            }
        ],
        [
            {
                "param": "post_category",
                "operator": "==",
                "value": "category:sea-to-sea"
            }
        ]
    ],
    "menu_order": 7,
    "position": "normal",
    "style": "default",
    "label_placement": "top",
    "instruction_placement": "label",
    "hide_on_screen": "",
    "active": true,
    "description": "",
    "show_in_rest": 0,
    "modified": 1671121400
}