{
    "key": "group_5e5057ee6b318",
    "title": "Travel - Israel Hike",
    "fields": [
        {
            "key": "field_5e505a269f601",
            "label": "פרטי המסלול -פרטים טכניים לא מלל חופשי",
            "name": "",
            "aria-label": "",
            "type": "tab",
            "instructions": "",
            "required": 0,
            "conditional_logic": 0,
            "wrapper": {
                "width": "",
                "class": "",
                "id": ""
            },
            "placement": "top",
            "endpoint": 0
        },
        {
            "key": "field_5e5057f99f5f8",
            "label": "נקודת מוצא- נקודת התחלה",
            "name": "start_point",
            "aria-label": "",
            "type": "text",
            "instructions": "כתוב מאיפה מתחילים את המקטע .",
            "required": 1,
            "conditional_logic": 0,
            "wrapper": {
                "width": "",
                "class": "",
                "id": ""
            },
            "default_value": "",
            "placeholder": "",
            "prepend": "",
            "append": "",
            "maxlength": ""
        },
        {
            "key": "field_5e50581c9f5f9",
            "label": "לינק לוויז לנקודת המוצא",
            "name": "waze_link_start-point",
            "aria-label": "",
            "type": "url",
            "instructions": "",
            "required": 1,
            "conditional_logic": [
                [
                    {
                        "field": "field_5e5057f99f5f8",
                        "operator": "!=empty"
                    }
                ]
            ],
            "wrapper": {
                "width": "",
                "class": "",
                "id": ""
            },
            "default_value": "",
            "placeholder": ""
        },
        {
            "key": "field_5e5058529f5fa",
            "label": "נקודת סיום המקטע",
            "name": "point_finish",
            "aria-label": "",
            "type": "text",
            "instructions": "",
            "required": 1,
            "conditional_logic": 0,
            "wrapper": {
                "width": "",
                "class": "",
                "id": ""
            },
            "default_value": "",
            "placeholder": "",
            "prepend": "",
            "append": "",
            "maxlength": ""
        },
        {
            "key": "field_5e5058639f5fb",
            "label": "נק סיום המקטע- לינק לוויז",
            "name": "link_waze_sium",
            "aria-label": "",
            "type": "url",
            "instructions": "",
            "required": 1,
            "conditional_logic": 0,
            "wrapper": {
                "width": "",
                "class": "",
                "id": ""
            },
            "default_value": "",
            "placeholder": ""
        },
        {
            "key": "field_5e5058839f5fc",
            "label": "אורך המקטע",
            "name": "long_howmuch_mikta",
            "aria-label": "",
            "type": "text",
            "instructions": "מה האורך של המקטע? לדוגמא:\r\n12.6 ק״מ",
            "required": 1,
            "conditional_logic": 0,
            "wrapper": {
                "width": "",
                "class": "",
                "id": ""
            },
            "default_value": "",
            "placeholder": "",
            "prepend": "",
            "append": "",
            "maxlength": ""
        },
        {
            "key": "field_5e5059d39f600",
            "label": "מיקום בארץ ? איפה זה? בצפון? דרום? סמן את המיקום , במידה ואין הוסף",
            "name": "location_israel_trails",
            "aria-label": "",
            "type": "taxonomy",
            "instructions": "מיקום בארץ ? איפה זה? בצפון? דרום? סמן את המיקום , במידה ואין הוסף",
            "required": 0,
            "conditional_logic": 0,
            "wrapper": {
                "width": "",
                "class": "",
                "id": ""
            },
            "taxonomy": "location",
            "field_type": "checkbox",
            "add_term": 0,
            "save_terms": 1,
            "load_terms": 1,
            "return_format": "id",
            "multiple": 0,
            "allow_null": 0
        },
        {
            "key": "field_5e505a719f602",
            "label": "תמונות חביבי תמונות !",
            "name": "pictures_shvial",
            "aria-label": "",
            "type": "gallery",
            "instructions": "אנא העלה לפחות את נק׳ ההתחלה ואת נק׳ הסיום . \r\nבמידה ויש את המקטע של המפה, מעולה .",
            "required": 0,
            "conditional_logic": 0,
            "wrapper": {
                "width": "",
                "class": "",
                "id": ""
            },
            "return_format": "array",
            "preview_size": "medium",
            "insert": "append",
            "library": "all",
            "min": "",
            "max": "",
            "min_width": "",
            "min_height": "",
            "min_size": "",
            "max_width": "",
            "max_height": "",
            "max_size": "",
            "mime_types": ""
        },
        {
            "key": "field_5e505aa89f603",
            "label": "כל מה שהוא מלל חופשי הוא כאן",
            "name": "",
            "aria-label": "",
            "type": "tab",
            "instructions": "",
            "required": 0,
            "conditional_logic": 0,
            "wrapper": {
                "width": "",
                "class": "",
                "id": ""
            },
            "placement": "top",
            "endpoint": 0
        },
        {
            "key": "field_5e5058ab9f5fd",
            "label": "דרכי הגעה= מלל חופשי",
            "name": "way_to_start",
            "aria-label": "",
            "type": "wysiwyg",
            "instructions": "כתוב כאן את דרכי ההגעה למקטע, \r\nבתחבורה ציבורית:\r\nכבישים וכו׳ .",
            "required": 0,
            "conditional_logic": 0,
            "wrapper": {
                "width": "",
                "class": "",
                "id": ""
            },
            "default_value": "",
            "tabs": "all",
            "toolbar": "full",
            "media_upload": 1,
            "delay": 0
        },
        {
            "key": "field_5e5058f39f5fe",
            "label": "מים במהלך המסלול- מלל חופשי",
            "name": "water_maslul",
            "aria-label": "",
            "type": "wysiwyg",
            "instructions": "איפה יש מים במהלך המסלול ? \r\nאיפה אפשר למלא?\r\nאם אין, אפשר לשים טלפון או המלצה למטמינים וכדומה .",
            "required": 0,
            "conditional_logic": 0,
            "wrapper": {
                "width": "",
                "class": "",
                "id": ""
            },
            "default_value": "",
            "tabs": "all",
            "toolbar": "full",
            "media_upload": 1,
            "delay": 0
        },
        {
            "key": "field_5e5059289f5ff",
            "label": "מלאכי שביל - מלל חופשי",
            "name": "kings_of_shvil",
            "aria-label": "",
            "type": "wysiwyg",
            "instructions": "רשום פרטים של מלאכי שביל .\r\nלדוגמא משה 050000000 נמצא ב: xyz , לא להתקשר בשבת וכדומה . \r\nיכול גם להפנות לינק כמקובל . \r\nזה הוא מלל חופשי אז רשום כמו שצריך .",
            "required": 0,
            "conditional_logic": 0,
            "wrapper": {
                "width": "",
                "class": "",
                "id": ""
            },
            "default_value": "",
            "tabs": "all",
            "toolbar": "full",
            "media_upload": 1,
            "delay": 0
        },
        {
            "key": "field_5e506a4dc23e2",
            "label": "מלל חופשי על הפוסט- תרשום תיאור וכל מה שאתה חושב שלא נכנס בדרכי הגעה, מים ומלאכי שביל . אולי חוויות וכדומה .",
            "name": "free_text",
            "aria-label": "",
            "type": "wysiwyg",
            "instructions": "",
            "required": 0,
            "conditional_logic": 0,
            "wrapper": {
                "width": "",
                "class": "",
                "id": ""
            },
            "default_value": "",
            "tabs": "all",
            "toolbar": "full",
            "media_upload": 1,
            "delay": 0
        }
    ],
    "location": [
        [
            {
                "param": "widget",
                "operator": "==",
                "value": "akismet_widget"
            }
        ]
    ],
    "menu_order": 4,
    "position": "acf_after_title",
    "style": "default",
    "label_placement": "top",
    "instruction_placement": "label",
    "hide_on_screen": [
        "comments",
        "format",
        "page_attributes",
        "send-trackbacks"
    ],
    "active": true,
    "description": "שביל ישראל חשוב חשוב חשוב",
    "show_in_rest": 0,
    "modified": 1671121734
}