{
    "key": "group_5e777691c8ff7",
    "title": "Travel - Jesus Trail",
    "fields": [
        {
            "key": "field_5e77769a9326e",
            "label": "פרטים",
            "name": "",
            "aria-label": "",
            "type": "accordion",
            "instructions": "",
            "required": 0,
            "conditional_logic": 0,
            "wrapper": {
                "width": "",
                "class": "",
                "id": ""
            },
            "open": 0,
            "multi_expand": 0,
            "endpoint": 0
        },
        {
            "key": "field_5e7777a99326f",
            "label": "שם המקטע - כותרת .",
            "name": "headline_jesus",
            "aria-label": "",
            "type": "text",
            "instructions": "",
            "required": 0,
            "conditional_logic": 0,
            "wrapper": {
                "width": "",
                "class": "",
                "id": ""
            },
            "default_value": "",
            "placeholder": "",
            "prepend": "",
            "append": "",
            "maxlength": ""
        },
        {
            "key": "field_5e7777c293270",
            "label": "אורך המרחק",
            "name": "long_dis",
            "aria-label": "",
            "type": "number",
            "instructions": "",
            "required": 0,
            "conditional_logic": 0,
            "wrapper": {
                "width": "",
                "class": "",
                "id": ""
            },
            "default_value": "",
            "placeholder": "",
            "prepend": "",
            "append": "",
            "min": "",
            "max": "",
            "step": ""
        },
        {
            "key": "field_5e87254a06b76",
            "label": "כותרת שנייה נקודות למילוי מים:",
            "name": "koteret2",
            "aria-label": "",
            "type": "text",
            "instructions": "",
            "required": 0,
            "conditional_logic": 0,
            "wrapper": {
                "width": "",
                "class": "",
                "id": ""
            },
            "default_value": "נקודות למילוי מים:",
            "placeholder": "",
            "prepend": "",
            "append": "",
            "maxlength": ""
        },
        {
            "key": "field_5e7777d893271",
            "label": "נקודות למילוי מים",
            "name": "water_fileds",
            "aria-label": "",
            "type": "wysiwyg",
            "instructions": "כתוב אם יש או אין נק למילוי מים, אם יש - כתוב אותן . אם אין תכתוב אין .",
            "required": 0,
            "conditional_logic": 0,
            "wrapper": {
                "width": "",
                "class": "",
                "id": ""
            },
            "default_value": "",
            "tabs": "all",
            "toolbar": "full",
            "media_upload": 1,
            "delay": 0
        },
        {
            "key": "field_5e77780793272",
            "label": "אוכל-הצטיידות למזון",
            "name": "food",
            "aria-label": "",
            "type": "wysiwyg",
            "instructions": "כתוב אם יש או אין מקום לאכול, אם יש אז תכתוב על המקומות , מסעדות כפרים וכו׳ .",
            "required": 0,
            "conditional_logic": 0,
            "wrapper": {
                "width": "",
                "class": "",
                "id": ""
            },
            "default_value": "",
            "tabs": "all",
            "toolbar": "full",
            "media_upload": 1,
            "delay": 0
        },
        {
            "key": "field_5e87255706b77",
            "label": "כותרת3",
            "name": "koteret3",
            "aria-label": "",
            "type": "text",
            "instructions": "",
            "required": 0,
            "conditional_logic": 0,
            "wrapper": {
                "width": "",
                "class": "",
                "id": ""
            },
            "default_value": "נקודות לצידה לדרך:",
            "placeholder": "",
            "prepend": "",
            "append": "",
            "maxlength": ""
        },
        {
            "key": "field_5e87254106b75",
            "label": "כותרת 1 איפה ישנים: או למה שתרצה לשנות",
            "name": "koteret1",
            "aria-label": "",
            "type": "text",
            "instructions": "",
            "required": 0,
            "conditional_logic": 0,
            "wrapper": {
                "width": "",
                "class": "",
                "id": ""
            },
            "default_value": "איפה ישנים:",
            "placeholder": "",
            "prepend": "",
            "append": "",
            "maxlength": ""
        },
        {
            "key": "field_5e77783093273",
            "label": "לינה (לא שדה חובה)",
            "name": "sleeping_jesus",
            "aria-label": "",
            "type": "wysiwyg",
            "instructions": "איפה הם ישנים ?",
            "required": 0,
            "conditional_logic": 0,
            "wrapper": {
                "width": "",
                "class": "",
                "id": ""
            },
            "default_value": "איפה ישנים:",
            "tabs": "all",
            "toolbar": "full",
            "media_upload": 1,
            "delay": 0
        },
        {
            "key": "field_5e77785693274",
            "label": "תוכן",
            "name": "tochen",
            "aria-label": "",
            "type": "wysiwyg",
            "instructions": "",
            "required": 0,
            "conditional_logic": 0,
            "wrapper": {
                "width": "",
                "class": "",
                "id": ""
            },
            "default_value": "",
            "tabs": "all",
            "toolbar": "full",
            "media_upload": 1,
            "delay": 0
        },
        {
            "key": "field_5e872ad38e5d7",
            "label": "מפה להורדה- טקסט , אם אתה לא רוצה,  פשוט תמחק.",
            "name": "mapaleorda",
            "aria-label": "",
            "type": "text",
            "instructions": "",
            "required": 0,
            "conditional_logic": 0,
            "wrapper": {
                "width": "",
                "class": "",
                "id": ""
            },
            "default_value": "",
            "placeholder": "",
            "prepend": "",
            "append": "",
            "maxlength": ""
        },
        {
            "key": "field_5e80ca33310dd",
            "label": "לינק לגרמין",
            "name": "link_garmins",
            "aria-label": "",
            "type": "url",
            "instructions": "",
            "required": 0,
            "conditional_logic": 0,
            "wrapper": {
                "width": "",
                "class": "",
                "id": ""
            },
            "default_value": "",
            "placeholder": ""
        }
    ],
    "location": [
        [
            {
                "param": "post_category",
                "operator": "==",
                "value": "category:jesus-trip"
            }
        ]
    ],
    "menu_order": 8,
    "position": "normal",
    "style": "default",
    "label_placement": "top",
    "instruction_placement": "label",
    "hide_on_screen": "",
    "active": true,
    "description": "",
    "show_in_rest": 0,
    "modified": 1671121779
}